…
    ## Parsed with column specification:
    ## cols(
    ##   .default = col_double(),
    ##   day = col_character()
    ## )

    ## See spec(...) for full column specifications.

``` r
accelerometer_data
```

    ## # A tibble: 50,400 x 6
    ##     week day_id day    minutes activity_counts weekend
    ##    <dbl>  <dbl> <chr>    <int>           <dbl> <chr>  
    ##  1     1      1 Friday       1            88.4 weekday
    ##  2     1      1 Friday       2            82.2 weekday
    ##  3     1      1 Friday       3            64.4 weekday
    ##  4     1      1 Friday       4            70.0 weekday
    ##  5     1      1 Friday       5            75.0 weekday
    ##  6     1      1 Friday       6            66.3 weekday
    ##  7     1      1 Friday       7            53.8 weekday
    ##  8     1      1 Friday       8            47.8 weekday
    ##  9     1      1 Friday       9            55.5 weekday
    ## 10     1      1 Friday      10            43.0 weekday
    ## # ... with 50,390 more rows
…
``` r
accelerometer_data4=
accelerometer_data %>%
  mutate(
    hour = minutes %/% 60,
    hour = as.integer(hour),
  ) %>%
  group_by(day, hour) %>%
  summarize(mean_activity_counts = mean(activity_counts))

accelerometer_data4
```

    ## # A tibble: 175 x 3
    ## # Groups:   day [7]
    ##    day     hour mean_activity_counts
    ##    <chr>  <int>                <dbl>
    ##  1 Friday     0                 38.1
    ##  2 Friday     1                 25.0
    ##  3 Friday     2                 17.9
    ##  4 Friday     3                 37.3
    ##  5 Friday     4                 92.0
    ##  6 Friday     5                120. 
    ##  7 Friday     6                206. 
    ##  8 Friday     7                350. 
    ##  9 Friday     8                350. 
    ## 10 Friday     9                430. 
    ## # ... with 165 more rows
…
accelerometer_data5
```

    ## # A tibble: 125 x 3
    ## # Groups:   unique_day [5]
    ##    unique_day  hour mean_activity_counts
    ##    <chr>      <int>                <dbl>
    ##  1 1 Tuesday      0                 46.1
    ##  2 1 Tuesday      1                 29.6
    ##  3 1 Tuesday      2                 34.9
    ##  4 1 Tuesday      3                 51.3
    ##  5 1 Tuesday      4                 69.3
    ##  6 1 Tuesday      5                104. 
    ##  7 1 Tuesday      6                122. 
    ##  8 1 Tuesday      7                166. 
    ##  9 1 Tuesday      8                299. 
    ## 10 1 Tuesday      9                303. 
    ## # ... with 115 more rows
…
